<svg xmlns="http://www.w3.org/2000/svg" width="1000" height="1000"><path d="m217.743 712.141 125.752-326.955a71.414 71.414 0 0 1 41.69-41.691l326.956-125.752c43.957-16.994 87.234 24.244 70.24 70.24L656.63 614.938a71.414 71.414 0 0 1-41.69 41.691L287.982 782.381c-45.996 16.994-87.234-26.283-70.24-70.24zm280.28-141.612c42.144 0 74.545-30.362 74.545-72.506 0-38.066-32.401-72.506-74.545-72.506-38.066 0-72.506 34.44-72.506 72.506 0 42.144 34.44 72.506 72.506 72.506z" class="fa-primary" style="display:inline;fill:#64ae24;fill-opacity:1;stroke-width:2.26581"/>
  <path d="M18.405 500C18.405 233.994 233.994 18.405 500 18.405c266.006 0 481.595 215.589 481.595 481.595 0 266.006-215.589 481.595-481.595 481.595-266.006 0-481.595-215.589-481.595-481.595Zm305.512 234.401 271.461-104.408a59.293 59.293 0 0 0 34.615-34.615l104.408-271.461c14.11-38.19-21.822-72.428-58.318-58.318L404.622 370.007a59.293 59.293 0 0 0-34.615 34.615L265.599 676.083c-14.11 36.496 20.129 72.428 58.318 58.318z" style="display:inline;fill:#64ae24;fill-opacity:1;stroke-width:1.88123;opacity:.4"/>
</svg>
